{
	"data": {
		"resultList": [{
			"id":"1",
			"name":"中间列表区域，列表上方居左为全局操作按钮组，居右为查询功能区",
			"length":"45分钟",
			"score":"10",
			"state":"已发布",
			"active":"是",
			"year":"2017"
		},{
			"id":"1",
			"name":"中间列表区域，列表上方居左为全局操作按钮组，居右为查询功能区",
			"length":"45分钟",
			"score":"10",
			"state":"已发布",
			"active":"是",
			"year":"2017"
		},{
			"id":"1",
			"name":"中间列表区域，列表上方居左为全局操作按钮组，居右为查询功能区",
			"length":"45分钟",
			"score":"10",
			"state":"已发布",
			"active":"是",
			"year":"2017"
		},{
			"id":"1",
			"name":"中间列表区域，列表上方居左为全局操作按钮组，居右为查询功能区",
			"length":"45分钟",
			"score":"10",
			"state":"已发布",
			"active":"是",
			"year":"2017"
		},{
			"id":"1",
			"name":"中间列表区域，列表上方居左为全局操作按钮组，居右为查询功能区",
			"length":"45分钟",
			"score":"10",
			"state":"已发布",
			"active":"是",
			"year":"2017"
		},{
			"id":"1",
			"name":"中间列表区域，列表上方居左为全局操作按钮组，居右为查询功能区",
			"length":"45分钟",
			"score":"10",
			"state":"已发布",
			"active":"是",
			"year":"2017"
		},{
			"id":"1",
			"name":"中间列表区域，列表上方居左为全局操作按钮组，居右为查询功能区",
			"length":"45分钟",
			"score":"10",
			"state":"已发布",
			"active":"是",
			"year":"2017"
		},{
			"id":"1",
			"name":"中间列表区域，列表上方居左为全局操作按钮组，居右为查询功能区",
			"length":"45分钟",
			"score":"10",
			"state":"已发布",
			"active":"是",
			"year":"2017"
		},{
			"id":"1",
			"name":"中间列表区域，列表上方居左为全局操作按钮组，居右为查询功能区",
			"length":"45分钟",
			"score":"10",
			"state":"已发布",
			"active":"是",
			"year":"2017"
		},{
			"id":"1",
			"name":"中间列表区域，列表上方居左为全局操作按钮组，居右为查询功能区",
			"length":"45分钟",
			"score":"10",
			"state":"已发布",
			"active":"是",
			"year":"2017"
		},{
			"id":"1",
			"name":"中间列表区域，列表上方居左为全局操作按钮组，居右为查询功能区",
			"length":"45分钟",
			"score":"10",
			"state":"已发布",
			"active":"是",
			"year":"2017"
		},{
			"id":"1",
			"name":"中间列表区域，列表上方居左为全局操作按钮组，居右为查询功能区",
			"length":"45分钟",
			"score":"10",
			"state":"已发布",
			"active":"是",
			"year":"2017"
		},{
			"id":"1",
			"name":"中间列表区域，列表上方居左为全局操作按钮组，居右为查询功能区",
			"length":"45分钟",
			"score":"10",
			"state":"已发布",
			"active":"是",
			"year":"2017"
		},{
			"id":"1",
			"name":"中间列表区域，列表上方居左为全局操作按钮组，居右为查询功能区",
			"length":"45分钟",
			"score":"10",
			"state":"已发布",
			"active":"是",
			"year":"2017"
		},{
			"id":"1",
			"name":"中间列表区域，列表上方居左为全局操作按钮组，居右为查询功能区",
			"length":"45分钟",
			"score":"10",
			"state":"已发布",
			"active":"是",
			"year":"2017"
		}],
		"pageSize": 15,
		"currentPage": 1,
		"count": 200,
		"maxPage": 1,
		"minPage": 1,
		"firstResult": 0,
		"pagination": {
			"count": 15,
			"page": 1,
			"pages": 14,
			"size": 200
		}
	},
	"message": "",
	"success": true,
	"clientmessagearray": {
		"message_text": "执行成功",
		"message_title": "",
		"message_severity": "success"
	}
}